{
  "id": "MLU459152780",
  "site_id": "MLU",
  "title": "Smart Tv Google Chromecast Hdmi Full Hd Netflix Youtube ® Ty",
  "subtitle": null,
  "seller_id": 205114401,
  "category_id": "MLU176997",
  "official_store_id": null,
  "price": 46.9,
  "base_price": 46.9,
  "original_price": null,
  "currency_id": "USD",
  "initial_quantity": 50000,
  "available_quantity": 5000,
  "sold_quantity": 5,
  "sale_terms": [],
  "buying_mode": "buy_it_now",
  "listing_type_id": "gold_special",
  "start_time": "2018-12-13T20:28:25.000Z",
  "stop_time": "2038-12-08T04:00:00.000Z",
  "condition": "new",
  "permalink": "https://articulo.mercadolibre.com.uy/MLU-459152780-smart-tv-google-chromecast-hdmi-full-hd-netflix-youtube-ty-_JM",
  "thumbnail": "http://mlu-s1-p.mlstatic.com/748978-MLU28995501517_122018-I.jpg",
  "secure_thumbnail": "https://mlu-s1-p.mlstatic.com/748978-MLU28995501517_122018-I.jpg",
  "pictures": [
    {
      "id": "748978-MLU28995501517_122018",
      "url": "http://mlu-s1-p.mlstatic.com/748978-MLU28995501517_122018-O.jpg",
      "secure_url": "https://mlu-s1-p.mlstatic.com/748978-MLU28995501517_122018-O.jpg",
      "size": "500x500",
      "max_size": "1200x1200",
      "quality": ""
    },
    {
      "id": "648048-MLU28995488663_122018",
      "url": "http://mlu-s1-p.mlstatic.com/648048-MLU28995488663_122018-O.jpg",
      "secure_url": "https://mlu-s1-p.mlstatic.com/648048-MLU28995488663_122018-O.jpg",
      "size": "500x370",
      "max_size": "750x555",
      "quality": ""
    },
    {
      "id": "742658-MLU28995458987_122018",
      "url": "http://mlu-s1-p.mlstatic.com/742658-MLU28995458987_122018-O.jpg",
      "secure_url": "https://mlu-s1-p.mlstatic.com/742658-MLU28995458987_122018-O.jpg",
      "size": "500x242",
      "max_size": "690x335",
      "quality": ""
    },
    {
      "id": "980769-MLU28995488667_122018",
      "url": "http://mlu-s1-p.mlstatic.com/980769-MLU28995488667_122018-O.jpg",
      "secure_url": "https://mlu-s1-p.mlstatic.com/980769-MLU28995488667_122018-O.jpg",
      "size": "500x312",
      "max_size": "800x500",
      "quality": ""
    },
    {
      "id": "909178-MLU28995501018_122018",
      "url": "http://mlu-s1-p.mlstatic.com/909178-MLU28995501018_122018-O.jpg",
      "secure_url": "https://mlu-s1-p.mlstatic.com/909178-MLU28995501018_122018-O.jpg",
      "size": "500x500",
      "max_size": "1000x1000",
      "quality": ""
    },
    {
      "id": "707900-MLU28995498029_122018",
      "url": "http://mlu-s1-p.mlstatic.com/707900-MLU28995498029_122018-O.jpg",
      "secure_url": "https://mlu-s1-p.mlstatic.com/707900-MLU28995498029_122018-O.jpg",
      "size": "500x500",
      "max_size": "500x500",
      "quality": ""
    }
  ],
  "video_id": null,
  "descriptions": [
    {
      "id": "MLU459152780-1924643815"
    }
  ],
  "accepts_mercadopago": true,
  "non_mercado_pago_payment_methods": [],
  "shipping": {
    "mode": "me2",
    "methods": [],
    "tags": [],
    "dimensions": null,
    "local_pick_up": true,
    "free_shipping": false,
    "logistic_type": "drop_off",
    "store_pick_up": false
  },
  "international_delivery_mode": "none",
  "seller_address": {
    "comment": "",
    "address_line": "",
    "zip_code": "",
    "city": {
      "id": "TUxVQ0NFTjVjMTM",
      "name": "Centro"
    },
    "state": {
      "id": "UY-MO",
      "name": "Montevideo"
    },
    "country": {
      "id": "UY",
      "name": "Uruguay"
    },
    "search_location": {
      "neighborhood": {
        "id": "",
        "name": ""
      },
      "city": {
        "id": "TUxVQ0NFTjVjMTM",
        "name": "Centro"
      },
      "state": {
        "id": "TUxVUE1PTlo2MDIy",
        "name": "Montevideo"
      }
    },
    "latitude": -34.906326,
    "longitude": -56.195328,
    "id": 191861918
  },
  "seller_contact": null,
  "location": {},
  "geolocation": {
    "latitude": -34.906326,
    "longitude": -56.195328
  },
  "coverage_areas": [],
  "attributes": [
    {
      "id": "ITEM_CONDITION",
      "name": "Condición del ítem",
      "value_id": "2230284",
      "value_name": "Nuevo",
      "value_struct": null,
      "attribute_group_id": "OTHERS",
      "attribute_group_name": "Otros"
    }
  ],
  "warnings": [],
  "listing_source": "",
  "variations": [],
  "status": "active",
  "sub_status": [],
  "tags": [
    "good_quality_picture",
    "good_quality_thumbnail"
  ],
  "warranty": "1 año",
  "catalog_product_id": null,
  "domain_id": null,
  "parent_item_id": null,
  "differential_pricing": null,
  "deal_ids": [],
  "automatic_relist": false,
  "date_created": "2018-12-13T20:28:25.000Z",
  "last_updated": "2019-02-08T19:31:12.000Z",
  "health": 0.71
}